id,resemblance,solution_size
1,31
2,31
3,51
4,271
5,45
6,63
7,531
8,100
9,106
10,124
11,31
12,31
13,47
14,76
15,87
16,55
17,60
18,76
19,124
20,154
21,118
22,127
23,160
24,258
25,226
26,226
27,415
28,576
29,714
30,112
31,180
32,no solution
33,334
34,106
35,596
36,1446
37,437
38,31
39,51
40,31
41,47
42,81
43,504
44,94
45,210
46,135
47,166
48,214
49,90
50,743
51,1213
52,863
53,1209
54,330
55,304
56,985
57,361
58,229
59,1428
60,671
61,885
62,145
63,1760
64,2853
65,2151
66,891
67,2418
68,1863
69,2423
70,1908
71,1856
72,3192
73,3275
74,1745
75,2246
76,681
77,1898
78,2738
79,193
80,166
81,166
82,172
83,133
84,148
85,no solution
86,452
87,100
88,204
89,121
90,136
91,106
92,112
93,183
94,64
95,100
96,100
97,106
98,39
99,174
100,124
101,843
103,31
105,81
107,488
155,31
156,31
157,31
158,31
159,31
160,112
162,60
163,64
164,56
165,66
166,64
167,66
172,531
173,31
175,56
178,31
179,56
181,31
183,31
184,56
187,31
190,487
191,631
192,163
194,166
221,31
285,163
287,142
288,142
289,124
290,112
291,112
292,160
293,163
294,202
299,31
300,31
301,31
303,31
304,31
305,31
328,112
357,112
454,159
457,211
459,60
462,250
489,124
490,60
491,106
494,64
498,87
499,117
502,1209
503,130
506,211
508,130
509,124
510,130
512,535
513,553
514,531
515,249
519,160
520,106
525,490
526,466
527,31
528,602
535,91
536,116
537,116
556,112
566,39
567,109
569,157
575,56
579,31
581,381
582,304
583,178
584,90
585,743
600,97
606,136
611,121
612,112
613,39
614,97
630,275
647,643
658,31
665,112
675,199
676,199
678,196
679,220
680,220
705,no solution
706,112
710,31
711,118
712,315
713,1114
714,370
715,306
716,284
717,31
719,2445
720,31
723,31
727,60
733,31
735,31
736,453
750,31
754,582
757,113
759,31
762,165
770,56
773,100
776,56
778,531
779,31
784,110
786,1591
787,no solution
788,67
791,81
793,35
794,no solution
823,596
838,59
845,56
846,70
847,229
851,70
855,110
856,110
857,110
858,110
899,31
900,no solution
901,no solution
902,47
903,31
904,no solution
905,405
906,79
907,596
908,83
909,596
910,596
911,67
912,596
913,596
914,59
916,59
975,51
994,31
998,112
999,112
1000,112
1014,218
1018,31
1019,31
1020,no solution
1021,no solution
1022,no solution
1023,no solution
1024,no solution
1044,112
1067,372
1068,56
1071,56
1073,82
1074,3902
1075,31
1076,56
1077,226
1079,72
1080,147
1082,53
1083,250
1085,56
1090,908
1091,63
1093,166
1094,100
1095,179
1096,127
1097,1237
1098,82
1099,100
1104,31
1106,31
1107,217
1109,203
1110,210
1111,63
1115,673
1118,56
1123,112
1124,112
1125,112
1126,112
1129,81
1130,100
1131,68
1132,56
1133,1383
1136,159
1138,56
1139,2759
1140,68
1141,31
1144,60
1145,31
1146,31
1148,167
1149,31
1150,60
1151,31
1154,270
1157,159
1158,60
1159,no solution
1161,56
1162,491
1164,31
1165,133
1166,31
1167,112
1168,31
1170,31
1171,31
1179,106
1181,106
1201,166
1229,31
1231,56
1232,31
1234,1423
1235,167
1237,1512
1238,63
1239,no solution
1240,142
1241,118
1242,31
1243,31
1247,31
1291,31
1294,47
1295,47
1296,47
1366,no solution
1367,507
1368,762
1369,151
1370,124
1371,56
1372,56
1373,56
1376,226
1378,2435
1382,64
1390,64
1395,106
1396,133
1397,133
1398,133
1406,233
1408,998
1409,76
1410,103
1411,no solution
1412,31
1414,586
1418,586
1440,586
1451,530
1452,530
1453,1106
1455,530
1460,294
1470,121
1478,76
1481,31
1485,1090
1486,581
1492,1000
1510,200
1522,64
1527,100
1533,68
1536,68
1567,56
1570,47
1585,112
1586,285
1587,4071
1603,1446
1605,56
1607,no solution
1608,112
1609,118
1611,1411
1616,1210
1617,1164
1623,60
1624,56
1625,123
1639,535
1641,181
1642,187
1649,490
1687,2443
1711,232
1731,31
1743,112
1758,4606
1759,31
1762,76
1765,142
1769,747
1776,31
1777,193
1778,100
1790,2907
1829,244
1832,112
1833,1021
1834,2833
1840,63
1843,407
1844,60
1845,211
1847,31
