id,resemblance,solution_size
1,1.0,31
2,1.0,31
3,1.0,51
4,1.0,271
5,1.0,45
6,1.0,63
7,no solution,no solution
8,1.0,100
9,1.0,106
10,1.0,124
11,0.777777,31
12,0.888888,31
13,0.098901,47
14,0.587675,76
15,0.542553,87
16,0.531707,55
17,0.552631,60
18,0.742302,76
19,0.64,124
20,0.664482,154
21,0.573333,118
22,0.879629,127
23,0.633284,160
24,0.9375,258
25,0.666666,226
26,0.5,226
27,0.676169,415
28,0.115101,576
29,0.739247,714
30,0.625,112
31,0.530061,180
32,no solution,no solution
33,0.685714,334
34,0.5,106
35,0.166557,596
36,1.0,1446
37,0.5,437
38,0.888888,31
39,0.75,51
40,0.777777,31
41,0.75,47
42,0.363207,81
43,0.015103,504
44,0.499389,94
45,0.732815,210
46,0.664931,135
47,0.655303,166
48,0.613304,214
49,0.682058,90
50,0.467142,743
51,0.147787,1213
52,0.707902,440
53,0.477004,389
54,0.443437,330
55,0.587765,304
56,no solution,no solution
57,0.556513,361
58,0.42022,229
59,0.144046,1428
60,0.351654,671
61,0.611128,885
62,0.733862,145
63,no solution,no solution
64,no solution,no solution
65,no solution,no solution
66,no solution,no solution
67,0.174435,2418
68,0.486407,888
69,no solution,no solution
70,no solution,no solution
71,no solution,no solution
72,no solution,no solution
73,no solution,no solution
74,no solution,no solution
75,0.549021,205
76,no solution,no solution
77,no solution,no solution
78,no solution,no solution
79,0.841368,193
80,0.89066,166
81,0.757511,166
82,0.777379,172
83,0.614814,133
84,0.7125,148
85,no solution,no solution
86,0.48,452
87,0.421875,100
88,0.688311,204
89,0.55,121
90,0.55625,136
91,0.489583,106
92,0.166666,112
93,0.141179,183
94,0.375,64
95,0.75,100
96,0.5625,100
97,0.6875,106
98,0.375,39
99,0.446428,174
100,0.875,124
101,0.256303,843
103,1.0,31
105,0.385305,81
107,no solution,no solution
155,1.0,31
156,1.0,31
157,1.0,31
158,0.875,31
159,0.75,31
160,0.333333,112
162,0.583333,60
163,0.684523,64
164,0.5,56
165,0.684523,66
166,0.684523,64
167,0.684523,66
172,no solution,no solution
173,1.0,31
175,0.75,56
178,no solution,no solution
179,0.9375,56
181,0.19,31
183,0.625,31
184,0.5,56
187,0.625,31
190,no solution,no solution
191,no solution,no solution
192,0.548479,163
194,0.548502,166
221,0.625,31
285,0.624685,163
287,0.115702,142
288,0.214532,142
289,0.37037,124
290,0.56,112
291,0.666666,112
292,0.736379,160
293,0.624685,163
294,0.715729,202
299,1.0,31
300,1.0,31
301,1.0,31
303,1.0,31
304,1.0,31
305,1.0,31
328,0.5,112
357,0.555555,112
454,0.430555,159
457,1.0,211
459,0.5,60
462,0.461538,250
489,0.583333,124
490,0.666666,60
491,0.5,106
494,0.5,64
498,0.5,87
499,0.984615,117
502,0.477004,389
503,0.583333,130
506,1.0,211
508,0.583333,130
509,0.583333,124
510,0.583333,130
512,1.0,535
513,1.0,553
514,1.0,531
515,1.0,249
519,0.633284,160
520,0.415584,106
525,1.0,490
526,1.0,466
527,0.5,31
528,1.0,602
535,0.603731,91
536,0.651515,116
537,0.651515,116
556,0.625,112
566,0.375,39
567,1.0,109
569,1.0,157
575,0.5,56
579,1.0,31
581,1.0,381
582,0.587765,304
583,1.0,178
584,0.682058,90
585,0.467142,743
600,0.777777,97
606,0.587675,136
611,1.0,121
612,0.625,112
613,0.375,39
614,0.90625,97
630,0.375,275
647,0.625,643
658,1.0,31
665,0.753086,112
675,0.589048,199
676,0.549358,199
678,0.530984,196
679,0.491608,220
680,0.519206,220
705,no solution,no solution
706,0.625,112
710,1.0,31
711,0.416666,118
712,no solution,no solution
713,0.475109,1114
714,0.556115,370
715,0.574555,306
716,0.690753,284
717,1.0,31
719,no solution,no solution
720,1.0,31
723,1.0,31
727,0.625,60
733,1.0,31
735,1.0,31
736,1.0,453
750,0.5,31
754,0.544531,582
757,0.150442,113
759,0.333333,31
762,0.647,165
770,0.4375,56
773,1.0,100
776,0.75,56
778,no solution,no solution
779,0.5,31
784,0.236231,110
786,no solution,no solution
787,no solution,no solution
788,0.632817,67
791,0.363207,81
793,1.0,35
794,no solution,no solution
823,0.166557,596
838,1.0,59
845,0.75,56
846,0.757575,70
847,0.42022,229
851,0.582424,70
855,0.236231,110
856,0.236231,110
857,0.236231,110
858,0.236231,110
899,0.333333,31
900,no solution,no solution
901,no solution,no solution
902,0.75,47
903,0.777777,31
904,no solution,no solution
905,0.751332,405
906,1.0,79
907,0.166557,596
908,1.0,83
909,0.166557,596
910,0.166557,596
911,1.0,67
912,0.166557,596
913,0.166557,596
914,1.0,59
916,1.0,59
975,0.75,51
994,0.888888,31
998,0.753086,112
999,0.753086,112
1000,0.753086,112
1014,0.417469,218
1018,0.75,31
1019,0.0198,31
1020,no solution,no solution
1021,no solution,no solution
1022,no solution,no solution
1023,no solution,no solution
1024,no solution,no solution
1044,0.333333,112
1067,0.582807,221
1068,0.75,56
1071,0.75,56
1073,0.547676,82
1074,0.75,3902
1075,0.875,31
1076,0.75,56
1077,0.666666,226
1079,0.546218,72
1080,1.0,147
1082,0.532267,53
1083,0.722222,250
1085,0.75,56
1090,0.001776,908
1091,0.625,63
1093,0.655303,166
1094,1.0,100
1095,0.53728,179
1096,0.375,127
1097,0.558629,1237
1098,0.547676,82
1099,0.5,100
1104,1.0,31
1106,1.0,31
1107,0.598048,217
1109,0.65948,203
1110,0.671487,210
1111,1.0,63
1115,0.57184,673
1118,0.75,56
1123,0.333333,112
1124,0.333333,112
1125,0.333333,112
1126,0.333333,112
1129,0.514116,81
1130,0.5,100
1131,0.738475,68
1132,0.75,56
1133,0.320564,2078
1136,0.306005,159
1138,0.5,56
1139,no solution,no solution
1140,0.615842,68
1141,0.555555,31
1144,0.958333,60
1145,1.0,31
1146,1.0,31
1148,0.515873,167
1149,1.0,31
1150,0.5,60
1151,1.0,31
1154,0.482905,270
1157,0.532407,159
1158,0.5,60
1159,no solution,no solution
1161,0.5,56
1162,0.538149,491
1164,no solution,no solution
1165,0.583333,133
1166,no solution,no solution
1167,0.555555,112
1168,no solution,no solution
1170,0.591836,31
1171,no solution,no solution
1179,1.0,106
1181,1.0,106
1201,0.655303,166
1229,0.375,31
1231,0.75,56
1232,0.591836,31
1234,0.679955,1423
1235,0.518518,167
1237,no solution,no solution
1238,0.625,63
1239,no solution,no solution
1240,0.567834,142
1241,0.573333,118
1242,0.591836,31
1243,0.591836,31
1247,0.0198,31
1291,0.3125,31
1294,0.3125,47
1295,0.3125,47
1296,0.3125,47
1366,no solution,no solution
1367,0.798956,507
1368,0.444098,762
1369,0.308657,151
1370,0.625,124
1371,0.75,56
1372,0.75,56
1373,0.75,56
1376,0.694444,226
1378,0.375,2435
1382,0.375,64
1390,0.625,64
1395,0.416666,106
1396,0.614814,133
1397,0.614814,133
1398,0.614814,133
1406,0.114353,233
1408,no solution,no solution
1409,0.607005,76
1410,0.75,103
1411,no solution,no solution
1412,0.6875,31
1414,0.75,586
1418,0.75,586
1440,0.75,586
1451,0.722222,530
1452,0.722222,530
1453,0.255368,858
1455,0.722222,530
1460,0.490871,294
1470,0.575,121
1478,0.742302,76
1481,0.333333,31
1485,0.944126,1090
1486,0.191235,581
1492,0.679371,1000
1510,0.310881,200
1522,1.0,64
1527,0.575262,100
1533,0.738475,68
1536,0.738475,68
1567,0.75,56
1570,0.75,47
1585,0.666666,112
1586,no solution,no solution
1587,no solution,no solution
1603,1.0,1446
1605,0.8125,56
1607,no solution,no solution
1608,0.666666,112
1609,0.698412,118
1611,1.0,1411
1616,0.182918,1210
1617,0.512296,1164
1623,0.5625,60
1624,0.75,56
1625,1.0,123
1639,1.0,535
1641,0.04875,181
1642,0.04875,187
1649,0.033171,490
1687,0.375,2443
1711,0.382263,232
1731,0.777777,31
1743,0.388888,112
1758,0.615454,4606
1759,0.5,31
1762,0.742302,76
1765,0.115702,142
1769,1.0,747
1776,0.5,31
1777,1.0,193
1778,1.0,100
1790,1.0,2907
1829,1.0,244
1832,0.736111,112
1833,0.507249,852
1834,no solution,no solution
1840,0.625,63
1843,0.28311,407
1844,0.552631,60
1845,0.375,211
1847,0.625,31
