1 perfect:171 not_perfect:1 max0.375
2 perfect:139 not_perfect:10 max0
3 perfect:124 not_perfect:10 max0.25
4 perfect:114 not_perfect:8 max0
5 perfect:88 not_perfect:29 max0.729166
6 perfect:87 not_perfect:26 max0.828571
7 perfect:81 not_perfect:29 max0.97648
8 perfect:75 not_perfect:22 max0.715527
9 perfect:65 not_perfect:21 max0.666666
10 perfect:60 not_perfect:26 max0.8
11 perfect:55 not_perfect:30 max0.777777
12 perfect:47 not_perfect:34 max0.888888
13 perfect:31 not_perfect:45 max0.885964
14 perfect:28 not_perfect:45 max0.896103
15 perfect:30 not_perfect:42 max0.928571
16 perfect:29 not_perfect:42 max0.983606
17 perfect:23 not_perfect:49 max0.95031
18 perfect:16 not_perfect:52 max0.950617
19 perfect:2 not_perfect:60 max0.859835
20 perfect:2 not_perfect:62 max0.869918
21 perfect:3 not_perfect:61 max0.916905
22 perfect:1 not_perfect:61 max0.879629
23 perfect:2 not_perfect:61 max0.922098
24 perfect:0 not_perfect:63 max0.9375
25 perfect:8 not_perfect:53 max0.857142
26 perfect:5 not_perfect:54 max0.818181
27 perfect:6 not_perfect:54 max0.772972
28 perfect:3 not_perfect:54 max0.538249
29 perfect:3 not_perfect:55 max0.839476
30 perfect:5 not_perfect:59 max0.8
31 perfect:5 not_perfect:58 max0.782608
32 perfect:1 not_perfect:60 max0.894736
33 perfect:4 not_perfect:55 max0.888888
34 perfect:4 not_perfect:59 max0.666666
35 perfect:3 not_perfect:56 max0.347223
36 perfect:34 not_perfect:36 max0.25
37 perfect:15 not_perfect:50 max0.953514
38 perfect:32 not_perfect:41 max0.888888
39 perfect:30 not_perfect:42 max0.808384
40 perfect:30 not_perfect:44 max0.896551
41 perfect:30 not_perfect:41 max0.820255
42 perfect:21 not_perfect:47 max0.991735
43 perfect:8 not_perfect:54 max0.847595
44 perfect:8 not_perfect:55 max0.995524
45 perfect:7 not_perfect:52 max0.947215
46 perfect:10 not_perfect:52 max0.896698
47 perfect:8 not_perfect:53 max0.978507
48 perfect:8 not_perfect:53 max0.985851
49 perfect:10 not_perfect:51 max0.944172
50 perfect:7 not_perfect:53 max0.925086
51 perfect:4 not_perfect:54 max0.857487
52 perfect:4 not_perfect:56 max0.973764
53 perfect:4 not_perfect:56 max0.833807
54 perfect:4 not_perfect:56 max0.90177
55 perfect:6 not_perfect:53 max0.952041
56 perfect:5 not_perfect:54 max0.888897
57 perfect:4 not_perfect:57 max0.982272
58 perfect:4 not_perfect:55 max0.931392
59 perfect:4 not_perfect:56 max0.919957
60 perfect:3 not_perfect:55 max0.780215
61 perfect:2 not_perfect:57 max0.885486
62 perfect:6 not_perfect:53 max0.973696
63 perfect:4 not_perfect:54 max0.841873
64 perfect:3 not_perfect:55 max0.950462
65 perfect:3 not_perfect:55 max0.796995
66 perfect:3 not_perfect:57 max0.791989
67 perfect:1 not_perfect:55 max0.873088
68 perfect:1 not_perfect:58 max0.999756
69 perfect:1 not_perfect:56 max0.887864
70 perfect:3 not_perfect:57 max0.988735
71 perfect:3 not_perfect:54 max0.920107
72 perfect:2 not_perfect:54 max0.999997
73 perfect:12 not_perfect:49 max0.910874
74 perfect:13 not_perfect:49 max0.87039
75 perfect:12 not_perfect:48 max0.680549
76 perfect:12 not_perfect:49 max0.948095
77 perfect:12 not_perfect:48 max0.999131
78 perfect:9 not_perfect:52 max0.976429
79 perfect:13 not_perfect:48 max0.856436
80 perfect:14 not_perfect:48 max0.899746
81 perfect:13 not_perfect:48 max0.798273
82 perfect:6 not_perfect:51 max0.996949
83 perfect:4 not_perfect:57 max0.965116
84 perfect:1 not_perfect:58 max0.95
85 perfect:3 not_perfect:58 max0.90566
86 perfect:3 not_perfect:56 max0.857142
87 perfect:0 not_perfect:60 max0.84375
88 perfect:0 not_perfect:60 max0.929824
89 perfect:2 not_perfect:60 max0.846153
90 perfect:0 not_perfect:60 max0.861386
91 perfect:1 not_perfect:59 max0.810344
92 perfect:3 not_perfect:56 max0.774193
93 perfect:3 not_perfect:58 max0.765306
94 perfect:9 not_perfect:55 max0.7
95 perfect:2 not_perfect:59 max0.857142
96 perfect:3 not_perfect:59 max0.888888
97 perfect:3 not_perfect:60 max0.846153
98 perfect:7 not_perfect:57 max0.795884
99 perfect:3 not_perfect:58 max0.776397
100 perfect:6 not_perfect:59 max0.954545
101 perfect:0 not_perfect:63 max0.706394
105 perfect:0 not_perfect:27 max0.992424
158 perfect:13 not_perfect:18 max0.875
160 perfect:1 not_perfect:23 max0.573508
162 perfect:0 not_perfect:26 max0.964285
172 perfect:12 not_perfect:21 max0.97648
173 perfect:33 not_perfect:4 max0.25
175 perfect:15 not_perfect:19 max0.846153
179 perfect:9 not_perfect:19 max0.9375
181 perfect:8 not_perfect:21 max0.80851
183 perfect:13 not_perfect:19 max0.727894
285 perfect:1 not_perfect:24 max0.874645
287 perfect:1 not_perfect:23 max0.207749
328 perfect:1 not_perfect:27 max0.888888
357 perfect:1 not_perfect:26 max0.90909
457 perfect:16 not_perfect:15 max0.444444
489 perfect:2 not_perfect:25 max0.777777
491 perfect:12 not_perfect:19 max0.81932
502 perfect:1 not_perfect:24 max0.833807
520 perfect:5 not_perfect:25 max0.937105
525 perfect:15 not_perfect:16 max0.5
556 perfect:0 not_perfect:26 max0.8
567 perfect:19 not_perfect:14 max0.561662
575 perfect:12 not_perfect:20 max0.669849
581 perfect:10 not_perfect:19 max0.714285
675 perfect:0 not_perfect:24 max0.720421
705 perfect:15 not_perfect:16 max0.75
712 perfect:2 not_perfect:22 max0.979564
727 perfect:3 not_perfect:24 max0.833333
736 perfect:26 not_perfect:4 max0.381114
750 perfect:12 not_perfect:19 max0.953514
754 perfect:1 not_perfect:22 max0.910459
757 perfect:4 not_perfect:25 max0.90909
759 perfect:0 not_perfect:26 max0.776523
762 perfect:0 not_perfect:26 max0.833762
773 perfect:21 not_perfect:13 max0.561662
776 perfect:14 not_perfect:19 max0.846153
778 perfect:11 not_perfect:20 max0.97648
779 perfect:14 not_perfect:19 max0.707072
786 perfect:0 not_perfect:23 max0.836368
787 perfect:11 not_perfect:17 max0.826446
788 perfect:4 not_perfect:24 max0.899001
791 perfect:6 not_perfect:23 max0.991735
793 perfect:32 not_perfect:4 max0.25
794 perfect:0 not_perfect:25 max0.810039
823 perfect:1 not_perfect:22 max0.347223
838 perfect:11 not_perfect:21 max0.714285
845 perfect:13 not_perfect:20 max0.846153
846 perfect:3 not_perfect:25 max0.901875
847 perfect:1 not_perfect:23 max0.899393
107 perfect:0 not_perfect:26 max0.992424
159 perfect:13 not_perfect:17 max0.820255
163 perfect:2 not_perfect:24 max0.892292
184 perfect:11 not_perfect:19 max0.669849
288 perfect:1 not_perfect:22 max0.3553
292 perfect:2 not_perfect:22 max0.898476
454 perfect:0 not_perfect:25 max0.735157
462 perfect:2 not_perfect:24 max0.645161
490 perfect:10 not_perfect:19 max0.744896
494 perfect:0 not_perfect:24 max0.933333
499 perfect:2 not_perfect:24 max0.984615
506 perfect:15 not_perfect:14 max0.444444
514 perfect:26 not_perfect:5 max0.999999
519 perfect:0 not_perfect:25 max0.922098
535 perfect:4 not_perfect:24 max0.908641
566 perfect:0 not_perfect:25 max0.797239
569 perfect:16 not_perfect:13 max0.561662
614 perfect:1 not_perfect:24 max0.980676
676 perfect:0 not_perfect:23 max0.785865
706 perfect:2 not_perfect:23 max0.833333
713 perfect:1 not_perfect:21 max0.879074
784 perfect:2 not_perfect:23 max0.90909
851 perfect:8 not_perfect:20 max0.756255
899 perfect:0 not_perfect:25 max0.779883
900 perfect:12 not_perfect:15 max0.378698
901 perfect:9 not_perfect:19 max0.863493
902 perfect:14 not_perfect:16 max0.820255
904 perfect:2 not_perfect:23 max0.944444
905 perfect:1 not_perfect:21 max0.956209
906 perfect:9 not_perfect:22 max0.980202
907 perfect:1 not_perfect:21 max0.347223
1014 perfect:0 not_perfect:24 max0.919988
1018 perfect:13 not_perfect:17 max0.820255
1019 perfect:7 not_perfect:20 max0.376646
1020 perfect:0 not_perfect:24 max0.894736
1044 perfect:1 not_perfect:22 max0.573508
1067 perfect:2 not_perfect:23 max0.999999
1068 perfect:14 not_perfect:18 max0.846153
1071 perfect:14 not_perfect:18 max0.846153
1074 perfect:8 not_perfect:17 max0.75
1075 perfect:12 not_perfect:17 max0.875
1076 perfect:14 not_perfect:18 max0.846153
1077 perfect:2 not_perfect:22 max0.857142
1079 perfect:6 not_perfect:22 max0.844155
1080 perfect:29 not_perfect:5 max0.999999
1082 perfect:5 not_perfect:23 max0.890342
1083 perfect:2 not_perfect:21 max0.866666
1090 perfect:0 not_perfect:24 max0.997118
1091 perfect:3 not_perfect:22 max0.833333
1093 perfect:1 not_perfect:23 max0.96122
1094 perfect:20 not_perfect:12 max0.561662
1095 perfect:0 not_perfect:24 max0.88574
1096 perfect:1 not_perfect:24 max0.916666
1097 perfect:0 not_perfect:19 max0.9602
157 perfect:30 not_perfect:1 max0.5
164 perfect:3 not_perfect:19 max0.8
187 perfect:2 not_perfect:20 max0.9
192 perfect:2 not_perfect:18 max0.997486
289 perfect:2 not_perfect:17 max0.550458
301 perfect:29 not_perfect:1 max0.5
459 perfect:10 not_perfect:15 max0.66947
503 perfect:2 not_perfect:19 max0.777777
512 perfect:13 not_perfect:10 max0.375
515 perfect:22 not_perfect:4 max0.999999
582 perfect:1 not_perfect:17 max0.952041
583 perfect:15 not_perfect:10 max0.561662
613 perfect:0 not_perfect:21 max0.80375
665 perfect:8 not_perfect:15 max0.765192
711 perfect:1 not_perfect:20 max0.833333
714 perfect:1 not_perfect:18 max0.938253
720 perfect:31 not_perfect:1 max0.5
855 perfect:2 not_perfect:20 max0.90909
903 perfect:11 not_perfect:14 max0.896551
908 perfect:9 not_perfect:18 max0.990291
909 perfect:1 not_perfect:17 max0.347223
1021 perfect:0 not_perfect:20 max0.842105
1073 perfect:2 not_perfect:20 max0.984513
1085 perfect:13 not_perfect:15 max0.846153
1107 perfect:1 not_perfect:20 max0.999999
1111 perfect:14 not_perfect:14 max0.707317
1123 perfect:1 not_perfect:19 max0.573508
1129 perfect:7 not_perfect:14 max0.906827
1130 perfect:11 not_perfect:15 max0.707072
1131 perfect:1 not_perfect:21 max0.938018
1132 perfect:13 not_perfect:15 max0.846153
1136 perfect:1 not_perfect:20 max0.916666
1138 perfect:10 not_perfect:16 max0.669849
1139 perfect:1 not_perfect:14 max0.807883
1140 perfect:1 not_perfect:19 max0.893071
1141 perfect:2 not_perfect:20 max0.9
1145 perfect:31 not_perfect:1 max0.5
1148 perfect:0 not_perfect:20 max0.837648
1162 perfect:1 not_perfect:19 max0.973565
1164 perfect:31 not_perfect:1 max0.5
1165 perfect:2 not_perfect:20 max0.777777
1167 perfect:1 not_perfect:20 max0.833333
1170 perfect:0 not_perfect:21 max0.844827
1179 perfect:15 not_perfect:12 max0.9375
1201 perfect:1 not_perfect:19 max0.96122
1231 perfect:13 not_perfect:16 max0.846153
1234 perfect:2 not_perfect:17 max0.933468
1237 perfect:0 not_perfect:16 max0.878914
1238 perfect:3 not_perfect:18 max0.833333
1239 perfect:1 not_perfect:20 max0.830404
1240 perfect:1 not_perfect:18 max0.901749
165 perfect:2 not_perfect:17 max0.891472
190 perfect:1 not_perfect:16 max0.893261
290 perfect:2 not_perfect:15 max0.756756
293 perfect:2 not_perfect:14 max0.874645
303 perfect:25 not_perfect:2 max0.5
498 perfect:3 not_perfect:18 max0.971372
508 perfect:2 not_perfect:17 max0.777777
513 perfect:12 not_perfect:9 max0.375
527 perfect:9 not_perfect:13 max0.953514
584 perfect:5 not_perfect:15 max0.746825
600 perfect:10 not_perfect:11 max0.792426
612 perfect:0 not_perfect:18 max0.8
678 perfect:0 not_perfect:16 max0.87296
715 perfect:1 not_perfect:15 max0.98821
723 perfect:25 not_perfect:2 max0.5
770 perfect:2 not_perfect:17 max0.875
856 perfect:1 not_perfect:17 max0.90909
910 perfect:1 not_perfect:14 max0.252057
911 perfect:8 not_perfect:15 max0.956566
975 perfect:9 not_perfect:12 max0.808384
998 perfect:7 not_perfect:12 max0.76439
1022 perfect:0 not_perfect:18 max0.809523
1098 perfect:2 not_perfect:16 max0.984513
1099 perfect:9 not_perfect:13 max0.7
1109 perfect:1 not_perfect:17 max0.999999
1118 perfect:11 not_perfect:13 max0.846153
1124 perfect:1 not_perfect:15 max0.573508
1133 perfect:0 not_perfect:10 max0.447027
1144 perfect:10 not_perfect:13 max0.958333
1146 perfect:25 not_perfect:2 max0.5
1150 perfect:9 not_perfect:13 max0.665623
1154 perfect:0 not_perfect:16 max0.863223
1166 perfect:25 not_perfect:2 max0.5
1181 perfect:13 not_perfect:10 max0.666666
1232 perfect:0 not_perfect:17 max0.844827
1235 perfect:1 not_perfect:17 max0.666666
1241 perfect:0 not_perfect:18 max0.906976
1247 perfect:5 not_perfect:14 max0.860869
1294 perfect:1 not_perfect:17 max0.680452
1366 perfect:7 not_perfect:13 max0.863493
1368 perfect:1 not_perfect:15 max0.983254
1369 perfect:0 not_perfect:17 max0.916666
1370 perfect:2 not_perfect:18 max0.833333
1371 perfect:11 not_perfect:15 max0.846153
1378 perfect:10 not_perfect:12 max0.375
1382 perfect:1 not_perfect:19 max0.642857
1390 perfect:1 not_perfect:19 max0.833333
1395 perfect:1 not_perfect:18 max0.833333
1396 perfect:1 not_perfect:17 max0.965116
1408 perfect:1 not_perfect:15 max0.990711
1409 perfect:2 not_perfect:17 max0.885031
1410 perfect:6 not_perfect:16 max0.846153
1411 perfect:6 not_perfect:15 max0.863493
1412 perfect:7 not_perfect:14 max0.834117
1418 perfect:2 not_perfect:17 max0.998059
1451 perfect:2 not_perfect:13 max0.866666
1453 perfect:0 not_perfect:17 max0.929211
1460 perfect:1 not_perfect:17 max0.905859
1470 perfect:3 not_perfect:18 max0.92
1481 perfect:2 not_perfect:17 max0.75037
166 perfect:1 not_perfect:14 max0.891472
191 perfect:0 not_perfect:14 max0.878323
194 perfect:1 not_perfect:13 max0.997523
291 perfect:1 not_perfect:12 max0.923076
304 perfect:22 not_perfect:1 max0.25
509 perfect:1 not_perfect:14 max0.777777
526 perfect:10 not_perfect:9 max0.470588
536 perfect:3 not_perfect:15 max0.988825
585 perfect:1 not_perfect:13 max0.925086
606 perfect:6 not_perfect:12 max0.85934
630 perfect:0 not_perfect:13 max0.795884
679 perfect:0 not_perfect:14 max0.780685
716 perfect:1 not_perfect:12 max0.922876
733 perfect:23 not_perfect:1 max0.25
857 perfect:1 not_perfect:15 max0.90909
912 perfect:1 not_perfect:12 max0.252057
914 perfect:9 not_perfect:11 max0.714285
994 perfect:8 not_perfect:10 max0.888888
999 perfect:7 not_perfect:10 max0.76439
1023 perfect:0 not_perfect:15 max0.885147
1104 perfect:22 not_perfect:1 max0.25
1110 perfect:0 not_perfect:13 max0.999999
1125 perfect:1 not_perfect:13 max0.573508
1149 perfect:22 not_perfect:1 max0.25
1157 perfect:0 not_perfect:15 max0.818854
1158 perfect:8 not_perfect:10 max0.665623
1229 perfect:0 not_perfect:14 max0.75
1242 perfect:0 not_perfect:15 max0.844827
1295 perfect:1 not_perfect:14 max0.680452
1367 perfect:1 not_perfect:11 max0.883626
1372 perfect:8 not_perfect:13 max0.846153
1376 perfect:1 not_perfect:14 max0.970588
1397 perfect:1 not_perfect:15 max0.965116
1406 perfect:1 not_perfect:12 max0.800969
1414 perfect:1 not_perfect:14 max0.998059
1452 perfect:2 not_perfect:10 max0.866666
1478 perfect:1 not_perfect:16 max0.950617
1485 perfect:0 not_perfect:10 max0.958869
1492 perfect:0 not_perfect:12 max0.625975
1510 perfect:0 not_perfect:13 max0.793252
1522 perfect:11 not_perfect:8 max0.666666
1527 perfect:0 not_perfect:15 max0.838582
1533 perfect:0 not_perfect:16 max0.938018
1567 perfect:8 not_perfect:12 max0.846153
1570 perfect:10 not_perfect:10 max0.820255
1585 perfect:0 not_perfect:15 max0.923076
1586 perfect:0 not_perfect:12 max0.992533
1605 perfect:2 not_perfect:15 max0.928571
1607 perfect:12 not_perfect:8 max0.8
1608 perfect:1 not_perfect:16 max0.888888
1611 perfect:6 not_perfect:12 max0.953475
1616 perfect:0 not_perfect:9 max0.684567
1624 perfect:8 not_perfect:11 max0.846153
1625 perfect:8 not_perfect:12 max0.868055
1639 perfect:10 not_perfect:7 max0.375
1641 perfect:5 not_perfect:12 max0.52962
1649 perfect:2 not_perfect:11 max0.849183
1687 perfect:6 not_perfect:8 max0.375
167 perfect:1 not_perfect:10 max0.891472
221 perfect:0 not_perfect:10 max0.833333
294 perfect:0 not_perfect:9 max0.890933
510 perfect:0 not_perfect:9 max0.777777
528 perfect:5 not_perfect:6 max0.470588
537 perfect:1 not_perfect:10 max0.713037
611 perfect:7 not_perfect:5 max0.5
647 perfect:0 not_perfect:7 max0.625
680 perfect:0 not_perfect:8 max0.642472
719 perfect:0 not_perfect:7 max0.986503
735 perfect:14 not_perfect:1 max0.25
858 perfect:0 not_perfect:10 max0.90909
913 perfect:0 not_perfect:8 max0.208076
916 perfect:6 not_perfect:8 max0.714285
1000 perfect:3 not_perfect:8 max0.764323
1024 perfect:0 not_perfect:9 max0.809523
1106 perfect:13 not_perfect:1 max0.25
1115 perfect:0 not_perfect:7 max0.945192
1126 perfect:0 not_perfect:8 max0.545454
1151 perfect:13 not_perfect:1 max0.25
1159 perfect:0 not_perfect:9 max0.863636
1161 perfect:3 not_perfect:7 max0.625734
1171 perfect:13 not_perfect:1 max0.25
1243 perfect:0 not_perfect:10 max0.828571
1291 perfect:0 not_perfect:10 max0.625
1296 perfect:0 not_perfect:9 max0.625
1373 perfect:3 not_perfect:10 max0.788362
1398 perfect:0 not_perfect:10 max0.965116
1440 perfect:0 not_perfect:9 max0.998059
1455 perfect:0 not_perfect:6 max0.726896
1486 perfect:0 not_perfect:8 max0.854159
1536 perfect:0 not_perfect:10 max0.938018
1587 perfect:0 not_perfect:7 max0.602626
1603 perfect:5 not_perfect:7 max0.790123
1609 perfect:0 not_perfect:9 max0.888888
1617 perfect:0 not_perfect:8 max0.61305
1623 perfect:0 not_perfect:9 max0.9
1642 perfect:2 not_perfect:7 max0.066831
1711 perfect:0 not_perfect:8 max0.667824
1731 perfect:6 not_perfect:6 max0.777777
1743 perfect:0 not_perfect:8 max0.875
1758 perfect:0 not_perfect:5 max0.615454
1759 perfect:6 not_perfect:6 max0.706434
1762 perfect:0 not_perfect:9 max0.925079
1765 perfect:0 not_perfect:8 max0.207749
1769 perfect:5 not_perfect:8 max0.320377
1776 perfect:5 not_perfect:8 max0.705018
1777 perfect:6 not_perfect:5 max0.807174
1778 perfect:6 not_perfect:5 max0.444444
1790 perfect:3 not_perfect:7 max0.794173
1829 perfect:5 not_perfect:7 max0.641775
1832 perfect:0 not_perfect:9 max0.946428
1833 perfect:1 not_perfect:6 max0.67473
1834 perfect:0 not_perfect:6 max0.629645
1840 perfect:2 not_perfect:8 max0.833333
1843 perfect:0 not_perfect:7 max0.705801
1844 perfect:2 not_perfect:9 max0.95031
1845 perfect:5 not_perfect:7 max0.498761
1847 perfect:6 not_perfect:7 max0.728929
168 perfect:0 not_perfect:8 max0.933333
196 perfect:0 not_perfect:6 max0.701572
286 perfect:0 not_perfect:5 max0.715849
306 perfect:7 not_perfect:1 max0.25
517 perfect:0 not_perfect:6 max0.583333
529 perfect:2 not_perfect:6 max0.470588
538 perfect:0 not_perfect:8 max0.862423
659 perfect:0 not_perfect:5 max0.625
681 perfect:0 not_perfect:6 max0.592719
721 perfect:0 not_perfect:5 max0.685481
738 perfect:7 not_perfect:1 max0.25
783 perfect:2 not_perfect:5 max0.75
859 perfect:0 not_perfect:8 max0.90909
915 perfect:0 not_perfect:7 max0.207071
918 perfect:1 not_perfect:7 max0.714285
1001 perfect:1 not_perfect:7 max0.764323
1025 perfect:0 not_perfect:7 max0.487153
1127 perfect:0 not_perfect:7 max0.427167
1152 perfect:7 not_perfect:1 max0.25
1160 perfect:0 not_perfect:6 max0.723342
1173 perfect:7 not_perfect:1 max0.25
1244 perfect:0 not_perfect:8 max0.70575
1297 perfect:0 not_perfect:7 max0.397417
1349 perfect:0 not_perfect:8 max0.508992
1361 perfect:2 not_perfect:7 max0.592592
1374 perfect:1 not_perfect:7 max0.786747
1400 perfect:0 not_perfect:8 max0.752504
1425 perfect:0 not_perfect:7 max0.998059
1457 perfect:0 not_perfect:5 max0.725206
1488 perfect:0 not_perfect:7 max0.670911
1539 perfect:0 not_perfect:8 max0.778746
1588 perfect:0 not_perfect:7 max0.793589
1619 perfect:0 not_perfect:5 max0.379694
1643 perfect:1 not_perfect:5 max0.064513
1670 perfect:0 not_perfect:7 max0.669852
1705 perfect:3 not_perfect:4 max0.25
1712 perfect:0 not_perfect:7 max0.634356
1763 perfect:0 not_perfect:4 max0.609965
1764 perfect:1 not_perfect:7 max0.642794
1767 perfect:0 not_perfect:6 max0.256774
1779 perfect:3 not_perfect:5 max0.444444
1831 perfect:0 not_perfect:7 max0.9
1875 perfect:0 not_perfect:6 max0.585003
1901 perfect:0 not_perfect:5 max0.48697
1938 perfect:0 not_perfect:5 max0.635995
1997 perfect:0 not_perfect:7 max0.528724
2000 perfect:0 not_perfect:7 max0.560259
2002 perfect:0 not_perfect:5 max0.629683
2006 perfect:1 not_perfect:8 max0.691586
2007 perfect:1 not_perfect:6 max0.508413
2025 perfect:2 not_perfect:6 max0.639826
2065 perfect:3 not_perfect:6 max0.782857
2067 perfect:0 not_perfect:5 max0.548805
2068 perfect:0 not_perfect:7 max0.611111
2069 perfect:2 not_perfect:5 max0.707106
2070 perfect:2 not_perfect:5 max0.496983
2071 perfect:0 not_perfect:7 max0.798554
2072 perfect:2 not_perfect:6 max0.625
169 never
302 never
307 never
366 never
518 never
530 never
539 never
664 never
682 never
722 never
740 never
832 never
860 never
917 never
921 never
1004 never
1026 never
1128 never
1155 never
1163 never
1178 never
1249 never
1298 never
1375 never
1402 never
1450 never
1459 never
1489 never
1540 never
1558 never
1589 never
1621 never
1644 never
1713 never
1757 never
1760 never
1766 never
1780 never
1842 never
1853 never
1885 never
1942 never
1983 never
2003 never
2026 never
2074 never
2075 never
2080 never
2081 never
2084 never
2088 never
2092 never
2094 never
2102 never
2108 never
2109 never
2112 never
2113 never
2114 never
2117 never
2118 never
