1,1.0
2,1.0
3,1.0
4,1.0
5,1.0
6,1.0
8,1.0
9,1.0
10,1.0
11,0.777777
12,0.888888
13,0.098901
14,0.587675
15,0.542553
16,0.531707
17,0.552631
18,0.742302
19,0.64
20,0.664482
21,0.573333
22,0.879629
23,0.633284
24,0.9375
25,0.666666
26,0.5
27,0.676169
28,0.115101
29,0.739247
30,0.625
31,0.530061
33,0.685714
34,0.5
35,0.166557
36,1.0
37,0.5
38,0.888888
39,0.75
40,0.777777
41,0.75
42,0.363207
43,0.015103
44,0.499389
45,0.732815
46,0.664931
47,0.655303
48,0.613304
49,0.682058
50,0.467142
51,0.147787
52,0.707902
53,0.477004
54,0.443437
55,0.587765
57,0.556513
58,0.42022
59,0.144046
60,0.351654
61,0.611128
62,0.733862
67,0.174435
68,0.486407
75,0.549021
79,0.841368
80,0.89066
81,0.757511
82,0.777379
83,0.614814
84,0.7125
86,0.48
87,0.421875
88,0.688311
89,0.55
90,0.55625
91,0.489583
92,0.166666
93,0.141179
94,0.375
95,0.75
96,0.5625
97,0.6875
98,0.375
99,0.446428
100,0.875
101,0.256303
103,1.0
105,0.385305
155,1.0
156,1.0
157,1.0
158,0.875
159,0.75
160,0.333333
162,0.583333
163,0.684523
164,0.5
165,0.684523
166,0.684523
167,0.684523
173,1.0
175,0.75
179,0.9375
181,0.19
183,0.625
184,0.5
187,0.625
192,0.548479
194,0.548502
221,0.625
285,0.624685
287,0.115702
288,0.214532
289,0.37037
290,0.56
291,0.666666
292,0.736379
293,0.624685
294,0.715729
299,1.0
300,1.0
301,1.0
303,1.0
304,1.0
305,1.0
328,0.5
357,0.555555
454,0.430555
457,1.0
459,0.5
462,0.461538
489,0.583333
490,0.666666
491,0.5
494,0.5
498,0.5
499,0.984615
502,0.477004
503,0.583333
506,1.0
508,0.583333
509,0.583333
510,0.583333
512,1.0
513,1.0
514,1.0
515,1.0
519,0.633284
520,0.415584
525,1.0
526,1.0
527,0.5
528,1.0
535,0.603731
536,0.651515
537,0.651515
556,0.625
566,0.375
567,1.0
569,1.0
575,0.5
579,1.0
581,1.0
582,0.587765
583,1.0
584,0.682058
585,0.467142
600,0.777777
606,0.587675
611,1.0
612,0.625
613,0.375
614,0.90625
630,0.375
647,0.625
658,1.0
665,0.753086
675,0.589048
676,0.549358
678,0.530984
679,0.491608
680,0.519206
706,0.625
710,1.0
711,0.416666
713,0.475109
714,0.556115
715,0.574555
716,0.690753
717,1.0
720,1.0
723,1.0
727,0.625
733,1.0
735,1.0
736,1.0
750,0.5
754,0.544531
757,0.150442
759,0.333333
762,0.647
770,0.4375
773,1.0
776,0.75
779,0.5
784,0.236231
788,0.632817
791,0.363207
793,1.0
823,0.166557
838,1.0
845,0.75
846,0.757575
847,0.42022
851,0.582424
855,0.236231
856,0.236231
857,0.236231
858,0.236231
899,0.333333
902,0.75
903,0.777777
905,0.751332
906,1.0
907,0.166557
908,1.0
909,0.166557
910,0.166557
911,1.0
912,0.166557
913,0.166557
914,1.0
916,1.0
975,0.75
994,0.888888
998,0.753086
999,0.753086
1000,0.753086
1014,0.417469
1018,0.75
1019,0.0198
1044,0.333333
1067,0.582807
1068,0.75
1071,0.75
1073,0.547676
1074,0.75
1075,0.875
1076,0.75
1077,0.666666
1079,0.546218
1080,1.0
1082,0.532267
1083,0.722222
1085,0.75
1090,0.001776
1091,0.625
1093,0.655303
1094,1.0
1095,0.53728
1096,0.375
1097,0.558629
1098,0.547676
1099,0.5
1104,1.0
1106,1.0
1107,0.598048
1109,0.65948
1110,0.671487
1111,1.0
1115,0.57184
1118,0.75
1123,0.333333
1124,0.333333
1125,0.333333
1126,0.333333
1129,0.514116
1130,0.5
1131,0.738475
1132,0.75
1133,0.320564
1136,0.306005
1138,0.5
1140,0.615842
1141,0.555555
1144,0.958333
1145,1.0
1146,1.0
1148,0.515873
1149,1.0
1150,0.5
1151,1.0
1154,0.482905
1157,0.532407
1158,0.5
1161,0.5
1162,0.538149
1165,0.583333
1167,0.555555
1170,0.591836
1179,1.0
1181,1.0
1201,0.655303
1229,0.375
1231,0.75
1232,0.591836
1234,0.679955
1235,0.518518
1238,0.625
1240,0.567834
1241,0.573333
1242,0.591836
1243,0.591836
1247,0.0198
1291,0.3125
1294,0.3125
1295,0.3125
1296,0.3125
1367,0.798956
1368,0.444098
1369,0.308657
1370,0.625
1371,0.75
1372,0.75
1373,0.75
1376,0.694444
1378,0.375
1382,0.375
1390,0.625
1395,0.416666
1396,0.614814
1397,0.614814
1398,0.614814
1406,0.114353
1409,0.607005
1410,0.75
1412,0.6875
1414,0.75
1418,0.75
1440,0.75
1451,0.722222
1452,0.722222
1453,0.255368
1455,0.722222
1460,0.490871
1470,0.575
1478,0.742302
1481,0.333333
1485,0.944126
1486,0.191235
1492,0.679371
1510,0.310881
1522,1.0
1527,0.575262
1533,0.738475
1536,0.738475
1567,0.75
1570,0.75
1585,0.666666
1603,1.0
1605,0.8125
1608,0.666666
1609,0.698412
1611,1.0
1616,0.182918
1617,0.512296
1623,0.5625
1624,0.75
1625,1.0
1639,1.0
1641,0.04875
1642,0.04875
1649,0.033171
1687,0.375
1711,0.382263
1731,0.777777
1743,0.388888
1758,0.615454
1759,0.5
1762,0.742302
1765,0.115702
1769,1.0
1776,0.5
1777,1.0
1778,1.0
1790,1.0
1829,1.0
1832,0.736111
7,1.0
32,0.607142
56,0.147768
63,0.453918
64,0.017807
65,0.285357
66,0.08386
69,0.651448
70,0.493936
71,0.001306
72,0.582159
73,0.485692
74,0.0
76,0.390167
77,0.395426
78,0.120773
85,0.888888
107,0.0
168,0.583333
169,0.583333
170,0.684523
171,0.684523
172,1.0
190,0.0
191,0.625
196,0.548537
198,0.548578
200,0.548622
202,0.548667
204,0.548712
206,0.548755
208,0.548797
210,0.548837
213,0.548875
215,0.548911
217,0.548945
219,0.548978
252,0.549009
270,0.549038
286,0.617167
302,1.0
306,1.0
307,1.0
308,1.0
309,1.0
310,1.0
311,1.0
312,1.0
313,1.0
314,1.0
315,1.0
316,1.0
317,1.0
318,1.0
319,1.0
320,1.0
321,1.0
322,1.0
323,1.0
325,1.0
326,1.0
327,1.0
329,1.0
330,1.0
331,1.0
334,1.0
335,1.0
336,1.0
337,1.0
338,1.0
344,1.0
356,1.0
358,1.0
359,1.0
360,1.0
361,1.0
365,1.0
366,0.72658
367,0.796489
368,0.771315
369,0.75884
371,0.939667
372,0.965432
374,0.913176
375,0.910191
376,0.722942
379,0.556154
381,0.541519
382,0.770588
384,0.783624
387,0.644404
517,0.583333
518,0.583333
521,0.215277
522,0.375
523,0.115808
524,0.060132
529,1.0
530,1.0
531,0.115808
532,1.0
533,1.0
538,0.651515
539,0.651515
540,0.651515
541,0.651515
542,0.651515
543,0.5
555,0.625
568,0.375
570,0.375
578,0.375
586,0.215277
588,0.215277
589,0.215277
659,0.625
664,0.625
674,0.375
681,0.532367
682,0.526964
683,0.410572
684,0.426949
685,0.455635
686,0.500211
687,0.402821
688,0.412793
689,0.432855
690,0.465768
691,0.375
705,1.0
712,0.510817
719,0.205798
721,0.527416
722,0.494539
724,0.419474
726,0.519174
728,0.533448
729,0.639691
730,0.58217
731,0.534919
732,0.594773
734,0.474789
737,0.555319
738,1.0
739,0.478089
740,1.0
741,0.643344
742,1.0
743,0.630826
744,0.53604
745,1.0
746,0.562337
747,1.0
748,0.466207
778,1.0
783,0.75
786,0.565432
787,1.0
794,0.5625
832,0.363207
859,0.236231
860,0.236231
861,0.236231
877,0.236231
878,0.236231
900,1.0
901,0.853249
904,0.85
915,0.166557
917,0.166557
918,1.0
919,0.166557
920,0.166557
921,1.0
924,1.0
926,1.0
929,1.0
931,1.0
934,1.0
936,1.0
939,1.0
942,1.0
944,1.0
947,1.0
949,1.0
952,1.0
954,1.0
957,1.0
960,1.0
962,1.0
965,1.0
967,1.0
970,1.0
972,1.0
976,1.0
978,1.0
981,1.0
982,1.0
983,1.0
984,1.0
985,1.0
1001,0.753086
1004,0.753086
1005,0.753086
1006,0.753086
1007,0.753086
1008,0.753086
1020,0.5625
1021,0.5625
1022,0.5625
1023,0.5625
1024,0.5625
1025,0.5625
1026,0.5625
1027,0.5625
1028,0.5625
1029,0.5625
1030,0.5625
1031,0.5625
1127,0.333333
1128,0.333333
1139,0.460985
1152,1.0
1155,1.0
1156,1.0
1159,0.76
1160,0.665
1163,0.603238
1169,0.599673
1237,0.077462
1239,0.441903
1244,0.591836
1249,0.544531
1250,0.544531
1252,0.544531
1253,0.544531
1254,0.544531
1255,0.544531
1256,0.544531
1257,0.544531
1258,0.544531
1259,0.544531
1260,0.544531
1261,0.544531
1262,0.544531
1263,0.544531
1264,0.544531
1265,0.544531
1266,0.544531
1267,0.544531
1269,0.544531
1270,0.544531
1271,0.544531
1272,0.544531
1273,0.544531
1274,0.544531
1275,0.544531
1276,0.544531
1277,0.544531
1278,0.544531
1297,0.3125
1298,0.3125
1299,0.3125
1300,0.3125
1301,0.3125
1302,0.3125
1303,0.3125
1304,0.3125
1305,0.3125
1307,0.3125
1308,0.3125
1311,0.3125
1312,0.3125
1313,0.3125
1314,0.3125
1315,0.3125
1316,0.3125
1317,0.3125
1318,0.3125
1319,0.3125
1321,0.3125
1322,0.3125
1323,0.3125
1324,0.3125
1325,0.3125
1326,0.3125
1331,0.3125
1332,0.3125
1334,0.3125
1349,0.5
1352,1.0
1361,1.0
1366,0.853249
1374,0.75
1375,0.75
1377,0.75
1383,0.75
1384,0.75
1385,0.75
1386,0.75
1387,0.75
1389,0.75
1391,0.75
1394,0.75
1400,0.614814
1402,0.666666
1403,0.666666
1404,0.666666
1405,0.666666
1407,0.666666
1408,0.838406
1411,0.853249
1417,0.75
1419,0.75
1420,0.75
1421,0.75
1422,0.75
1423,0.75
1425,0.75
1426,0.75
1427,0.75
1428,0.75
1429,0.75
1430,0.75
1431,0.75
1432,0.75
1433,0.75
1434,0.75
1437,0.75
1438,0.75
1442,0.75
1444,0.75
1445,0.75
1446,0.75
1447,0.75
1448,0.75
1449,0.75
1450,0.75
1454,0.75
1457,0.722222
1459,0.722222
1461,0.75
1462,0.722222
1464,0.722222
1465,0.722222
1466,0.722222
1467,0.722222
1468,0.722222
1469,0.722222
1471,0.722222
1472,0.722222
1473,0.722222
1474,0.722222
1475,0.722222
1476,0.722222
1477,0.722222
1479,0.722222
1488,0.51136
1489,0.712637
1490,0.896366
1539,0.738475
1540,0.738475
1542,0.738475
1544,0.738475
1545,0.738475
1546,0.738475
1547,0.738475
1549,0.738475
1550,0.738475
1552,0.738475
1553,0.738475
1554,0.738475
1555,0.738475
1557,0.738475
1558,1.0
1559,0.738475
1561,0.738475
1562,0.738475
1564,0.738475
1565,0.738475
1586,0.019453
1587,0.532494
1588,0.663521
1589,0.606871
1590,0.105557
1591,0.321591
1592,0.902598
1593,0.503563
1594,0.798158
1595,0.0
1596,0.573179
1597,0.23476
1598,0.557189
1599,0.55834
1600,0.697156
1601,0.749199
1606,1.0
1607,1.0
1610,1.0
1612,1.0
1619,0.072553
1621,0.581051
1626,0.495468
1627,0.482657
1628,0.459033
1629,0.140477
1630,0.937601
1631,0.51434
1633,0.209769
1634,0.981218
1635,0.96949
1636,0.974492
1637,0.341981
1638,0.983909
1640,1.0
1643,0.04875
1644,0.04875
1645,0.04875
1646,0.04875
1647,0.04875
1648,0.04875
1650,0.04875
1652,0.04875
1653,0.04875
1654,0.04875
1655,0.04875
1656,0.04875
1657,0.04875
1658,0.04875
1659,0.04875
1660,0.04875
1661,0.04875
1662,0.04875
1663,0.04875
1664,0.04875
1665,0.04875
1670,0.666666
1689,1.0
1696,1.0
1705,1.0
1712,0.365319
1713,0.361307
1714,0.406014
1715,0.318493
1716,0.335363
1717,0.33537
1718,0.3742
1719,0.366914
1720,0.376135
1721,0.391972
1722,0.368681
1723,0.34511
1724,0.367474
1725,0.357836
1726,0.294881
1727,0.335037
1728,0.372175
1729,0.363758
1730,0.397231
1732,0.375449
1733,0.343138
1734,0.045124
1735,0.371099
1736,0.426285
1737,0.362932
1738,0.333752
1739,0.38562
1740,0.349397
1741,0.33548
1755,0.583333
1757,0.975
1760,0.68889
1761,0.583333
1763,0.500554
1764,0.552631
1766,0.531707
1767,0.214532
1768,0.542553
1771,0.56
1775,0.583333
1779,1.0
1780,1.0
1781,1.0
1782,1.0
1783,1.0
1784,1.0
1831,0.625
1833,0.464718
1834,0.45789
1840,0.625
1842,0.611111
1843,0.28311
1844,0.552631
1845,0.375
1847,0.625
1848,0.71875
1853,0.625
1854,0.555555
1855,0.081219
1875,0.503341
1885,0.367395
1899,0.687073
1901,0.555555
1902,0.625
1903,0.555555
1904,0.125852
1906,0.546218
1907,1.0
1933,0.51112
1938,0.635024
1941,0.516701
1942,0.581339
1943,0.546192
1945,0.548146
1947,0.520282
1949,0.526883
1950,0.374612
1952,0.456013
1953,0.262832
1954,0.834215
1956,0.790127
1958,0.620474
1959,0.435286
1960,0.643897
1963,0.433459
1965,0.487696
1966,0.286802
1971,0.56986
1972,0.484268
1973,0.42919
1977,0.429199
1979,0.730929
1980,0.714919
1982,0.245651
1983,0.394441
1984,0.063525
1987,0.418158
1989,0.703527
1991,0.509447
1997,0.485714
1999,0.55595
2000,0.416666
2002,0.664164
2003,0.5
2004,0.722222
2005,0.416666
2006,0.583333
2007,0.232488
2025,1.0
2026,1.0
2027,1.0
2028,1.0
2029,1.0
2030,1.0
2031,1.0
2032,1.0
2033,1.0
2034,1.0
2035,1.0
2036,1.0
2044,1.0
2045,1.0
2046,1.0
2047,1.0
2048,1.0
2049,1.0
2050,1.0
2051,1.0
2052,1.0
2053,1.0
2065,0.75
2067,0.337873
2068,0.52
2069,1.0
2070,0.375
2071,0.768123
2072,0.625
2074,0.625
2075,1.0
2079,1.0
2080,0.305872
2081,0.333333
2082,1.0
2084,0.992187
2087,0.64245
2088,0.5
2090,0.504201
2091,0.474025
2092,0.625
2093,0.625
2094,1.0
2095,0.607438
2097,0.505882
2098,0.454687
2102,0.274471
2103,0.806763
2104,0.625
2105,0.003007
2106,0.625
2107,0.625
2108,0.060496
2109,0.513888
2110,0.586734
2111,0.567099
2112,0.888888
2113,0.568889
2114,0.147768
2115,1.0
2116,1.0
2117,0.375
2118,0.573333
2119,0.546811
2120,0.52435
2121,0.492647
2122,0.711538
2123,0.550781
2124,0.65909
2125,0.333333
2126,0.625776
2127,1.0
2129,0.416666
2130,0.708823
2138,0.753906
2147,0.75
2148,0.75
2166,0.333333
2168,0.333333
2175,0.19
2186,0.9375
2187,0.682058
2188,1.0
2189,0.5
2191,0.124044
2193,0.5
2194,0.5
2195,0.5
2196,0.458333
2197,1.0
2200,0.4375
2201,0.75
2204,0.375
2205,0.754344
2206,0.375
2208,1.0
2209,0.714285
2210,0.040549
2211,1.0
2213,1.0
2215,0.230328
2216,1.0
2217,0.625
2218,0.6875
2219,1.0
2220,1.0
2226,0.566666
2227,0.128121
2228,0.587675
2229,0.583333
2230,0.416666
2231,0.625
2232,0.625
2233,0.625
2234,0.625
2235,0.999433
2236,0.561224
2237,0.75
2238,0.085287
2240,0.625
2241,0.625
2244,0.587675
2245,0.098901
2247,0.777777
2250,0.140745
2251,1.0
2253,1.0
2254,1.0
2255,1.0
2256,1.0
2257,1.0
2260,0.451531
2261,1.0
2262,1.0
2263,1.0
2265,0.193905
2268,0.444444
2271,0.475313
2272,0.5
2274,0.958333
2275,0.462233
2276,0.462233
2277,0.462233
2278,0.462233
2279,0.462233
2280,0.462233
2281,0.462233
2282,0.462233
2283,0.462233
2284,0.462233
2285,0.462233
2286,0.462233
2287,0.462233
2288,0.462233
2289,0.462233
2290,0.462233
2291,0.462233
2292,0.462233
2293,0.462233
2294,0.462233
2295,0.462233
2296,0.462233
2297,0.462233
2298,0.462233
2308,0.310125
2311,0.6875
2317,0.375
2318,0.375
2320,0.375
2322,0.375
2323,0.375
2324,0.375
2325,0.375
2326,0.375
2327,0.375
2330,0.666666
2331,0.416666
2332,0.333333
2333,0.331484
2334,0.75
2335,0.333333
2337,0.0
2338,0.333333
2339,0.333333
2340,0.333333
2341,0.333333
2342,0.333333
2343,0.333333
2352,0.220749
2353,0.499589
2354,0.631219
2355,0.214128
2356,0.488368
2357,0.694444
2358,0.694444
2359,0.694444
2367,0.508265
2385,0.5
2386,0.5
2387,0.5
2388,0.375
2389,0.5
2390,0.5
2391,0.5
2392,0.5
2393,0.5
2395,0.5
2396,0.5
2397,0.5
2398,0.375
2399,0.0
2400,0.499589
2402,0.076378
2403,0.444444
2404,0.375
2405,0.260817
2407,0.5
2408,0.280118
2409,0.875
2410,0.372549
2412,0.75
2413,0.103279
2415,0.792884
2418,0.105848
2420,0.082925
2421,1.0
2424,1.0
2425,1.0
2426,1.0
2427,1.0
2428,0.682058
2429,0.682058
2430,0.682058
2431,0.682058
2432,0.682058
2433,0.682058
2434,0.682058
2435,0.682058
2436,0.682058
2437,0.682058
2438,0.682058
2439,0.682058
2440,0.682058
2441,0.682058
2442,0.682058
2443,0.682058
2455,0.333333
2465,0.263269
2466,0.685714
2467,0.685714
2468,0.561224
2469,0.263269
2470,0.09953
2473,0.113956
2474,0.561224
2475,0.129851
2476,0.263972
2477,0.102722
2482,0.611111
2484,1.0
2485,1.0
2486,1.0
2488,1.0
2489,1.0
2490,1.0
2491,1.0
2492,1.0
2493,0.625
2494,0.75
2495,0.625
2496,0.294117
2498,0.515676
2499,0.515676
2500,0.515676
2501,0.515676
2502,0.375
2503,0.625
2504,0.5
2505,0.625
2506,0.625
2507,0.625
2508,0.625
2509,0.133319
2511,0.625
2512,0.625
2513,0.625
2514,0.625
2515,0.625
2516,0.625
2519,0.669569
2521,0.375
2522,0.349056
2523,0.75
2524,0.208791
2525,0.349056
2526,0.5
2527,0.5
2528,0.375
2530,0.5
2531,1.0
2533,0.350564
2534,1.0
2535,0.5
2537,0.689873
2538,1.0
2539,0.363207
2540,1.0
2541,0.651515
2542,0.651515
2543,0.651515
2544,0.651515
2545,0.651515
2546,0.651515
2548,0.611425
2549,0.5
2550,0.5
2551,1.0
2552,0.583333
2553,0.375
2554,0.958333
2556,0.958333
2561,0.669569
2563,1.0
2564,1.0
2565,1.0
2566,0.5
2567,0.5
2570,1.0
2573,1.0
2576,0.444444
2578,0.53518
2579,0.363207
2580,0.75
2581,0.75
2582,0.75
2583,0.75
2584,0.75
2585,0.75
2586,0.75
2587,0.75
2588,0.75
2589,0.75
2590,0.75
2591,0.75
2592,0.75
2593,0.75
2594,0.75
2595,0.75
2596,0.75
2597,0.75
2598,0.75
2599,0.75
2600,0.75
2601,0.75
2602,0.75
2615,0.6875
2616,0.561224
2617,0.666666
2618,1.0
2619,0.561224
2620,0.789634
2621,0.56
2623,0.5
2624,1.0
2625,0.5625
2626,0.5625
2627,0.5625
2628,0.722222
2629,0.5625
2630,0.5625
2631,0.5625
2661,0.375
2662,0.722222
2663,1.0
2666,0.304347
2669,0.375
2670,1.0
2671,1.0
2672,0.66797
2673,0.694444
2674,0.694444
2675,0.694444
2676,0.694444
2678,0.694444
2680,0.694444
2681,0.694444
2682,0.694444
2683,0.694444
2684,0.694444
2685,0.694444
2686,0.694444
2687,0.694444
2688,0.694444
2690,0.694444
2691,0.694444
2692,0.694444
2693,0.694444
2694,0.694444
2706,0.666666
2709,0.5
2710,0.375
2711,0.482928
2712,0.75
2713,0.698412
2715,0.472514
2716,0.999999
2717,0.5
2718,0.5
2719,0.375
2720,0.5
2721,0.669787
2723,0.958333
2724,0.048964
2726,0.5
2730,0.350248
2731,0.416666
2733,0.625
2734,0.625
2735,0.625
2736,0.625
2737,0.625
2738,0.625
2739,0.625
2740,1.0
2741,0.625
2742,0.625
2743,0.625
2744,0.625
2745,0.625
2746,0.625
2747,0.625
339,1.0
340,1.0
986,1.0
987,1.0
1279,0.544531
1280,0.544531
1335,0.3125
1336,0.3125
1435,0.75
1443,0.75
1742,0.366597
1744,0.347787
2054,1.0
2055,1.0
2299,0.462233
2300,0.462233
2603,0.75
2604,0.75
2695,0.694444
2696,0.694444
2749,0.625
2750,0.4375
2751,0.669642
2752,0.791666
2753,0.430555
2754,1.0
2755,0.669642
2757,1.0
2758,1.0
2759,0.430555
2760,1.0
2761,0.353878
2762,0.684523
2763,1.0
2764,0.5625
2766,1.0
2767,1.0
2768,1.0
2769,1.0
2770,0.75
2772,0.666666
2773,0.666666
2774,0.566666
2778,0.448979
2779,0.322033
2780,1.0
2782,1.0
2784,0.71875
2785,0.375
2786,0.561224
2788,0.628855
2789,0.561224
2791,1.0
2794,0.5
2797,0.247093
2800,0.375
2801,0.375
2802,1.0
2803,1.0
2804,0.375
2805,0.444444
2807,0.768123
2808,0.375
2809,0.375
2810,0.299851
2812,0.375
2813,1.0
2814,0.375
2815,1.0
2816,0.573333
2817,0.573333
2818,0.573333
2819,0.573333
2820,1.0
2821,1.0
2822,0.375
2824,0.419642
2825,1.0
2826,1.0
2827,0.215277
2828,1.0
2829,0.401384
2830,1.0
2831,0.215277
2832,1.0
2834,1.0
2835,0.215277
2836,0.580937
2838,0.215277
2839,0.419642
2840,0.215277
2841,0.215277
2842,0.215277
2843,0.215277
2844,0.419642
2845,0.375
2846,0.375
2847,0.375
2848,0.375
2849,0.375
2853,0.375
2857,0.375
2860,0.375
2861,0.46875
2862,0.375
2864,0.215277
2865,0.215277
2866,0.625
2868,0.419642
2872,0.685714
2874,0.599862
2875,0.618988
2876,0.448979
2877,0.430555
2878,0.5
2880,0.243093
2882,0.5
2883,0.475
2885,0.5625
2886,0.416666
2887,0.71875
2888,0.5
2891,0.416666
2893,0.416666
2894,0.59375
2895,0.342105
2896,0.75
2897,0.363207
2898,0.75
2900,0.669642
2901,0.75
2903,0.487268
2909,0.299504
2910,0.552631
2911,0.742302
2912,0.777777
2913,0.319693
2914,0.746088
2915,0.552631
2916,0.692527
2917,0.22759
2918,0.442867
2919,0.310737
2920,0.027349
2921,0.064419
2922,0.61106
2924,0.474989
2925,0.180319
2926,0.487403
2928,0.481197
2929,0.742302
2931,0.132607
2932,0.406768
2933,0.625554
2935,0.428067
2936,0.078187
2967,1.0
2968,0.323752
2969,0.460669
2972,0.777777
2997,0.75
2998,1.0
3020,1.0
3022,0.519371
3023,0.669569
3024,0.768123
3031,0.519206
3032,0.532367
3034,0.410572
3035,0.426949
3036,0.455635
3037,0.500211
3038,0.402821
3039,0.412793
3040,0.432855
3041,0.465768
3043,1.0
3071,0.75
3072,0.633333
3073,0.699074
3083,0.5
3088,0.59375
3101,0.55
3102,0.55
3103,1.0
3104,0.666666
3106,0.768123
3113,0.493915
3130,0.294117
3138,0.5
3139,0.214128
3140,0.611111
3141,0.208791
3142,0.375
3143,0.375
3144,0.5
3145,0.765625
3146,0.619221
3148,1.0
3151,0.578382
3152,0.192936
3153,0.176954
3154,0.349056
3155,0.349056
3156,0.473879
3157,0.214128
3160,0.249752
3176,0.335714
3177,0.535714
3178,0.733913
3179,0.64
3181,0.555555
3182,0.560367
3184,0.523491
3188,0.477075
3189,0.544495
3190,1.0
3191,1.0
3192,1.0
3193,0.699074
3194,0.509077
3195,1.0
3196,0.448979
3197,0.5
3198,1.0
3199,0.699074
3205,0.75
3220,1.0
3223,0.566297
3229,1.0
3245,0.59704
3247,0.823432
3249,0.351769
3265,0.561825
3271,0.666666
3272,0.771328
3273,1.0
3274,0.511076
3276,1.0
3277,0.5
3278,1.0
3280,0.66
3281,0.488284
3286,0.561224
3288,1.0
3290,0.5
3291,1.0
3293,0.497784
3294,0.02234
3297,0.625
3298,0.009883
3303,0.060891
3304,0.56
3312,0.151675
3322,0.75
3340,0.719981
3342,0.533333
3344,0.561669
3345,0.008749
3346,0.539304
3347,0.494636
3348,0.466794
3349,0.316666
3350,0.682058
3351,0.533333
3352,0.095188
3356,0.035563
3362,0.375
3366,0.925929
3367,1.0
3368,0.509186
3369,0.553017
3370,0.842339
3371,0.981964
3372,0.813757
3373,0.523491
3374,0.523491
3375,0.694153
3376,0.523491
3377,0.523491
3378,0.740232
3379,0.523491
3380,0.58908
3381,0.523491
3382,0.523491
3383,0.958071
3384,0.523491
3385,0.523491
3386,0.541511
3387,0.523491
3388,0.523491
3389,0.523491
3390,0.523491
3391,0.523491
3392,0.523491
3393,0.523491
3394,0.523491
3396,0.351966
3397,0.000921
3399,0.789516
3400,0.512642
3401,0.775415
3402,0.992323
3403,0.555555
3405,0.092101
3406,0.80933
3407,0.444444
3409,0.420454
3410,0.485984
3411,0.509744
3416,0.086727
3417,0.5
3418,0.437384
3455,1.0
3484,1.0
3506,0.5
3521,0.775
3527,0.40625
3528,0.722491
3539,1.0
3540,0.030761
3546,0.431584
3547,0.75
3549,0.75
3552,1.0
3559,0.75
3560,0.50022
3561,1.0
3562,0.480732
3563,0.27644
3564,0.364784
3565,0.24923
3566,0.27644
3567,0.36
3568,0.299286
3569,0.351351
3570,0.299286
3571,0.351351
3576,0.34
3577,1.0
3578,0.091877
3579,0.75
3580,0.414048
3581,0.625
3583,0.025987
3584,0.875
3585,0.516022
3586,0.416564
3587,0.236231
3588,0.032777
3594,0.320276
3595,0.561224
3604,0.441907
3607,0.254528
3608,0.555555
3610,0.163591
3622,0.268848
3624,0.46664
3625,0.505607
3626,0.546928
3629,0.536867
3632,0.417046
3634,0.749126
3636,0.460965
3637,0.356951
3638,0.431584
3639,0.447995
3641,0.687298
3642,0.71887
3646,0.66269
3647,0.540462
3664,1.0
3668,0.358714
3677,0.140452
3681,0.488052
3682,0.599707
3683,0.27711
3690,0.398772
3691,0.378239
3706,0.9375
3707,0.9375
3708,0.9375
3709,0.9375
3710,0.9375
3711,0.9375
3712,0.9375
3713,0.9375
3714,0.9375
3715,0.9375
3716,0.9375
3717,1.0
3718,0.9375
3719,0.9375
3721,0.9375
3722,0.9375
3723,0.9375
3724,0.9375
3725,0.9375
3734,0.411854
3735,0.444896
3740,0.5
3744,0.333333
3745,0.333333
3746,0.333333
3748,1.0
3754,0.333333
3755,0.333333
3756,0.333333
3757,0.333333
3758,0.333333
3759,0.333333
3760,0.333333
3761,0.333333
3762,0.333333
3763,0.333333
3766,1.0
3767,0.64
3768,1.0
3770,1.0
3771,1.0
3772,0.40625
3773,1.0
3774,1.0
3780,0.57671
3781,0.555555
3784,0.489221
3788,0.269281
3795,0.317925
3800,0.40625
3802,0.392746
3803,0.347139
3804,0.346021
3805,0.540063
3806,0.375
3807,0.370524
3810,1.0
3811,1.0
3812,0.374548
3813,0.425168
3814,1.0
3815,1.0
3816,1.0
3817,1.0
3819,0.378138
3822,0.097934
3824,0.458333
3826,0.777777
3828,0.134516
3829,0.398629
3830,0.363207
3831,0.448979
3832,0.233759
3833,0.282404
3834,0.481367
3835,0.362779
3836,0.243355
3838,0.374591
3839,1.0
3840,0.504159
3841,0.533762
3843,1.0
3845,0.82
3846,0.300478
3848,0.375
3850,0.672847
3852,0.5
3854,0.5
3857,0.486404
3859,0.651515
3860,0.875
3862,0.351483
3863,0.404486
3865,0.106515
3866,0.64
3867,0.567178
3869,0.531707
3871,0.617819
3873,0.027296
3874,0.572779
3875,0.875
3876,0.542553
3883,1.0
3884,0.083711
3885,0.64
3888,0.044421
3890,0.042533
3891,0.375
3895,0.0392
3897,0.044421
3899,0.042533
3900,0.040798
3901,0.0392
3904,0.375
3907,0.042533
3909,0.040798
3914,0.044421
3916,0.042533
3917,0.671035
3919,0.040798
3920,0.0392
3921,0.044421
3924,0.040798
3925,0.0392
3940,0.119269
3943,0.525755
3945,0.647135
3947,0.139815
3948,0.5
3949,0.106132
3951,0.095103
3952,0.465553
3953,0.576286
3954,0.248815
3955,0.533978
3956,0.504162
3957,0.502868
3958,0.107565
3959,0.411783
3960,0.109927
3961,0.124766
3962,0.114012
3963,0.11792
3964,0.132441
3965,0.500121
3966,0.124411
3967,0.110721
3968,0.105157
3969,0.121212
3970,0.538744
3971,0.097772
3972,0.876988
3973,0.302997
3974,0.117445
3976,0.76418
3977,0.33504
3979,0.290995
3981,0.396776
3984,0.540809
3985,0.418992
3986,0.539329
3989,0.210107
3990,0.065
3992,0.624557
3996,0.543956
3998,1.0
4000,1.0
4017,0.818798
4022,0.5
4026,0.709782
4028,0.395807
4029,0.524871
4030,0.307425
4031,0.0
4032,0.599236
4033,0.003923
4034,0.410256
4035,0.524835
4036,0.371185
4037,0.603327
4038,0.322662
4039,0.585307
4040,0.485595
4041,0.353602
4042,0.117169
4043,0.418379
4044,0.62252
4051,0.5
4059,0.625
4060,0.244633
4070,0.236231
4072,0.448979
4073,0.781436
4077,0.53
4079,0.475708
4080,1.0
4081,1.0
4088,0.203703
4090,0.226562
4095,0.731905
4098,0.422082
4099,0.6875
4100,1.0
4101,0.386927
4105,0.046564
4108,1.0
4111,0.561881
4112,0.63866
4114,1.0
4117,0.592998
4119,0.528654
4121,1.0
4135,0.506072
4138,0.215199
4157,0.169421
4163,0.5
4165,0.568975
4166,0.185
4172,0.421088
4173,0.203703
4174,0.226562
4176,0.255102
4192,0.658494
4206,0.254559
4210,0.561224
4211,1.0
4212,0.601387
4220,0.570519
4221,0.15625
4223,0.317865
4228,1.0
4229,0.50022
4230,0.688474
4234,0.500121
4236,0.50022
4237,0.500121
4239,0.50022
4240,0.394574
4242,0.500121
4248,0.250223
4250,0.096022
4251,0.625
4252,0.612174
4255,0.5
4262,0.777379
4275,0.499598
4279,0.5
4281,0.567669
4282,0.628674
4283,1.0
4284,0.579931
4285,0.164528
4286,0.495271
4287,0.736111
4288,1.0
4289,1.0
4290,0.99795
4291,0.72485
4293,0.747811
4294,0.178006
4295,0.714285
4298,0.5
4302,0.445942
4303,0.5
4304,0.494544
4305,0.521421
4306,0.514285
4309,0.5
4321,0.722222
4322,0.722222
4323,0.722222
4324,0.722222
4325,0.722222
4326,0.722222
4327,0.722222
4328,0.722222
4329,0.722222
4330,0.722222
4331,0.722222
4332,0.722222
4333,0.722222
4334,0.722222
4335,0.722222
4336,0.714285
4337,0.714285
4338,0.5
4339,0.5
4340,0.67146
4342,1.0
4343,1.0
4344,1.0
4345,0.386149
4346,0.5
4347,0.561224
4348,0.561224
4349,0.561224
4350,0.561224
4351,0.561224
4352,0.561224
4353,0.561224
4354,0.561224
4356,0.561224
4357,0.561224
4358,0.561224
4360,0.624999
4361,0.561224
4364,0.714285
4366,0.401384
4367,0.5
4368,0.633332
4369,0.5
4370,0.45
4371,0.302605
4372,0.714285
4375,1.0
4376,0.5
4377,0.431488
4378,0.507826
4379,0.5
4380,0.543956
4381,0.444444
4382,0.485714
4383,0.644963
4384,0.514374
4385,0.215398
4386,0.908597
4387,0.526998
4388,0.812135
4389,0.416666
4390,0.284082
4391,0.170152
4392,0.616194
4393,0.411669
4394,0.565432
4395,0.191235
4397,0.698412
4401,0.765625
4408,0.875
4409,0.714285
4410,0.46875
4411,0.366759
4412,0.5
4414,0.60765
4422,0.369694
4423,0.100431
4424,0.515064
4425,0.411687
4426,0.226175
4428,0.5
4439,0.613868
4440,0.566666
4443,0.5
4444,0.621767
4446,0.5
4450,1.0
4451,0.5
4453,0.375
4454,0.424425
4455,0.448979
4456,0.083685
4457,1.0
4458,0.5
4459,0.236231
4468,0.43639
4472,0.67964
4474,0.380927
4475,0.701573
4476,0.714285
4480,1.0
4481,0.722222
4482,0.722222
4483,0.722222
4484,0.722222
4485,0.722222
4486,0.722222
4487,0.722222
4488,0.722222
4489,0.722222
4490,0.722222
4491,0.722222
4492,0.722222
4493,0.722222
4503,1.0
4505,1.0
4508,1.0
4518,1.0
4526,0.508265
4527,0.508265
4528,0.508265
4529,0.508265
4530,0.508265
4531,0.508265
4532,0.508265
4533,0.508265
4534,0.508265
4535,0.508265
4550,1.0
4551,1.0
4552,1.0
4553,1.0
4554,1.0
4555,1.0
4556,1.0
4557,1.0
4558,1.0
4559,1.0
4560,1.0
4566,1.0
4567,0.410714
4570,0.714285
4571,0.583333
4572,0.666374
4573,0.45
4574,0.375
4575,0.583333
4576,0.416666
4577,0.5
4578,0.611111
4579,0.375
4580,0.5
4581,0.45
4582,0.375
4583,0.583333
4584,0.487665
4586,0.722222
4587,0.5
4588,1.0
4590,0.738475
4591,0.738475
4592,0.738475
4593,0.738475
4594,0.75
4595,0.625
4596,0.40625
4597,0.625
4598,0.625
4599,0.0
4600,0.625
4601,0.714285
4602,0.24
4604,0.314049
4608,0.479363
4637,0.244005
4638,0.694444
4639,0.6097
4645,0.556605
4651,0.331167
4652,0.326806
4655,1.0
4656,0.372849
4657,0.279479
4660,0.361287
4663,0.316511
4665,0.127286
4667,0.374133
4670,0.298892
4673,0.357855
4674,0.706349
4676,0.146491
4678,0.22573
4679,0.559149
4680,0.333061
4682,0.105429
4684,0.643589
4685,0.448558
4687,0.633012
4688,0.694214
4691,0.061564
4694,0.634943
4696,0.268961
4697,0.686199
4698,0.429621
4699,0.5456
4700,0.802955
4702,0.573099
4704,0.544534
4705,1.0
4708,0.714285
4713,0.312139
4719,0.494512
4722,0.340719
4774,0.595127
4780,0.575765
4781,0.651038
4782,1.0
4784,0.714285
4788,0.987939
341,1.0
988,1.0
1281,0.544531
1337,0.3125
1392,0.75
1745,0.299401
2056,1.0
2301,0.462233
2605,0.75
2697,0.694444
2799,0.375
2937,0.104085
3726,0.9375
3928,0.044421
4046,0.506442
4320,0.722222
4398,0.209769
4415,0.381166
4460,0.5
4494,0.722222
4561,1.0
4706,0.625874
4720,0.152513
4724,0.339067
4789,0.842608
4790,0.925433
4791,0.472856
4792,0.610377
4793,0.511759
4794,0.856075
4795,0.549873
4796,0.521433
4797,0.928565
4800,0.666673
4801,0.500342
4808,0.620088
4809,0.524012
4810,0.777379
4811,0.35247
4812,0.652353
4813,0.373917
4814,0.5
4815,0.615553
4816,0.903849
4817,0.937522
4818,0.685019
4819,0.921108
4820,0.327424
4821,0.602678
4822,0.792929
4823,0.676812
4824,0.524979
4825,0.676526
4826,0.788327
4827,1.0
4828,0.9338
4829,0.805086
4830,0.78514
4832,0.579473
4833,0.919598
4834,1.0
4837,1.0
4839,1.0
4840,1.0
4845,1.0
4846,1.0
4848,1.0
4849,1.0
4851,1.0
4853,1.0
4856,1.0
4857,1.0
4858,1.0
4859,1.0
4860,0.681971
4871,0.683676
4874,0.404821
4875,0.714285
4876,0.375098
4877,0.640979
4878,0.75
4879,0.75
4880,0.75
4881,0.307564
4882,0.75
4883,0.75
4884,0.75
4885,0.75
4893,0.579473
4894,0.307564
4895,0.373917
4896,0.307564
4897,0.579473
4898,0.307564
4904,0.588365
4905,0.714285
4906,0.502426
4907,1.0
4909,0.677805
4910,1.0
4912,0.63409
4913,0.78564
4915,1.0
4916,0.236231
4918,1.0
4919,0.64
4920,0.625
4921,0.75
4922,0.503504
4923,0.661173
4924,0.72
4926,0.40088
4927,0.475996
4928,0.533788
4930,0.526194
4931,0.037355
4932,0.61142
4933,0.47378
4955,0.738475
4956,0.738475
4957,0.738475
4958,0.738475
4959,0.738475
4960,0.520853
4961,0.738475
4962,0.738475
4963,0.738475
4964,0.738475
4965,0.516591
4966,0.738475
4967,0.738475
4968,0.738475
4969,0.516591
4970,0.231278
4971,0.34
4972,0.401281
4973,0.517204
4974,1.0
4975,0.323499
4976,0.61287
4977,0.08491
4979,1.0
4981,0.325529
4983,0.314049
4984,0.419529
4986,0.326842
4987,0.625
4988,0.65147
4989,0.301093
4990,0.625
4992,0.368017
4994,0.625
4995,0.625
4996,0.625
4997,0.625
4998,0.625
4999,0.625
5000,0.625
5001,0.625
5002,0.625
5003,0.625
5004,0.625
5009,0.75
5017,0.64
5018,0.5
5019,0.45
5020,0.5
5021,0.733333
5022,0.8
5027,0.333333
5029,0.5
5030,1.0
5031,0.722222
5032,0.532077
5034,0.378863
5035,0.373456
5036,0.614946
5038,0.335714
5039,0.509077
5040,0.722222
5042,0.164362
5043,0.635673
5044,0.370967
5045,0.600151
5046,0.432518
5047,0.387818
5048,0.341099
5050,0.614326
5051,0.606081
5053,0.310238
5054,0.403684
5055,0.292713
5057,0.361386
5061,0.092346
5062,1.0
5064,0.34339
5068,0.484078
5069,0.496472
5070,0.236231
5071,0.509077
5072,0.42825
5074,0.211296
5075,0.722819
5079,0.673169
5080,0.625543
5081,0.612793
5082,0.612793
5083,0.672873
5084,0.482007
5085,0.07779
5086,0.584314
5097,0.493111
5101,0.252064
5102,0.623028
5103,0.477317
5104,0.639713
5105,0.599907
5106,0.431657
5107,0.44428
5108,0.382265
5110,0.038023
5111,0.995983
5112,0.156634
5113,0.369735
5114,0.989854
5115,0.58743
5116,0.995983
5118,0.989854
5119,0.666666
5120,0.666666
5121,0.554742
5123,0.79373
5128,1.0
5130,0.294524
5132,0.361105
5133,0.555555
5134,0.483161
5135,0.212609
5136,0.563053
5138,1.0
5139,0.368424
5140,0.468453
5141,1.0
5142,0.374375
5143,0.570292
5146,0.639014
5149,1.0
5150,1.0
5151,0.329987
5152,0.402392
5153,0.258196
5154,0.564336
5155,0.396486
5156,0.258196
5157,0.572686
5158,0.418023
5159,0.258196
5160,0.583781
5161,0.45767
5168,0.523876
5172,0.5
5173,1.0
5174,0.789787
5175,0.535797
5176,0.796476
5178,0.685714
5179,0.783314
5180,0.300309
5181,1.0
5182,0.790437
5183,0.905846
5184,0.3896
5185,0.685714
5186,0.722222
5188,0.555753
5189,0.63945
5190,0.490777
5191,0.614325
5192,0.605868
5195,0.50022
5197,0.500121
5198,1.0
5199,0.50022
5203,0.500121
5204,0.50022
5205,1.0
5207,1.0
5208,0.608064
5209,0.738475
5210,0.738475
5212,0.738475
5213,0.738475
5214,0.738475
5215,0.738475
5216,0.738475
5222,0.738475
5224,0.738475
5230,0.455932
5231,1.0
5232,0.865979
5234,0.686681
5236,0.649576
5237,1.0
5238,1.0
5239,1.0
5240,0.691443
5241,1.0
5244,0.667684
5249,0.132416
5252,0.314049
5259,0.722908
5260,0.694528
5261,1.0
5262,0.791141
5264,0.236231
5266,0.155846
5267,0.14497
5268,0.135204
5269,0.126666
5270,0.11914
5271,0.3125
5272,0.573333
5273,0.552631
5276,0.0981
5277,1.0
5285,0.75
5286,0.75
5287,0.75
5288,0.75
5289,0.75
5290,0.75
5291,0.75
5292,0.75
5301,0.333333
5302,0.5
5303,0.5
5304,0.5
5305,0.5
5306,0.5
5307,0.5
5308,0.5
5309,0.5
5310,0.5
5314,1.0
5316,0.625
5317,0.625
5318,0.625
5319,0.625
5320,0.625
5321,0.625
5322,0.625
5323,0.625
5332,0.593758
5333,0.412673
5334,1.0
5335,0.324956
5336,0.324956
5337,0.073169
5338,1.0
5339,0.501736
5340,0.236231
5341,0.64
5347,0.494097
5348,0.451207
5349,1.0
5351,0.49074
5352,0.487534
5356,0.722222
5357,0.722222
5358,0.722222
5359,0.722222
5360,0.722222
5361,0.722222
5362,0.722222
5371,0.875
5372,0.875
5373,0.503046
5374,0.46596
5375,0.393371
5376,0.378678
5377,0.492771
5378,0.338909
5379,0.404749
5388,1.0
5390,1.0
5391,0.340383
5392,0.149741
5393,0.996567
5402,0.333333
5403,0.333333
5404,0.333333
5405,0.333333
5406,0.333333
5407,0.333333
5408,0.318992
5411,0.502176
5412,0.022901
5413,0.625
5414,0.633707
5415,0.625
5416,0.75
5417,0.324956
5418,0.324956
5419,0.324956
5420,0.324956
5421,0.324956
5422,0.324956
5426,1.0
5427,1.0
5436,0.236231
5439,0.013661
5443,0.500554
5444,0.476757
5445,0.984615
5447,0.651515
5454,0.56
5455,0.306386
5456,0.989854
5457,1.0
5459,0.269493
5460,0.246011
5472,0.513392
5473,1.0
5476,0.5625
5482,0.513392
5483,0.513392
5484,0.513392
5485,0.513392
5486,0.2532
5487,0.756311
5491,1.0
5492,0.636577
5493,0.382321
5494,0.47711
5495,0.587786
5496,0.882035
5505,0.75
5507,0.333747
5508,0.572144
5509,0.543748
5510,0.665101
5511,0.538143
5512,0.538143
5514,0.375464
5524,0.742302
5525,0.552631
5526,0.404844
5527,0.742302
5532,0.485138
5533,0.248962
5536,0.75
5546,0.592836
5554,1.0
5563,0.652397
5565,0.690151
5570,0.034157
5571,0.612655
5573,0.373917
5575,0.0
5576,0.634346
5578,0.851716
5580,0.380295
5581,1.0
5583,0.320397
5591,0.443209
5598,0.625
5599,0.557692
5600,0.628773
5601,0.523491
5602,0.523491
5603,0.462121
5604,0.523491
5605,0.523491
5607,0.493464
5608,0.112456
5609,0.714285
5610,0.53409
5611,0.629238
5612,0.777777
5613,0.025356
5614,0.5913
5615,0.529203
5617,0.450807
5619,0.104192
5620,0.077666
5635,0.273369
5636,0.42215
5637,0.539792
5640,0.63798
5642,1.0
5643,0.624075
5644,0.108399
5648,0.683676
5654,0.765625
5671,0.452646
5672,0.501504
5685,0.812819
5688,0.318623
5693,0.53182
5696,0.583792
5705,0.500121
5719,0.603554
5723,0.566666
5724,0.50022
5725,0.500121
5737,0.602666
5742,0.335714
5745,0.092346
5746,0.714285
5762,1.0
5770,0.468544
5774,0.79033
5776,0.106481
5777,0.117877
5780,0.610725
5781,0.677984
5782,0.683255
5783,0.628773
5786,0.650398
5789,0.9375
5794,0.101108
5797,0.714285
5798,0.236737
5799,0.637406
5805,0.665374
5808,1.0
5809,0.777777
5810,1.0
5811,0.140938
5812,1.0
5813,0.510416
5816,0.888888
5819,0.412414
5820,1.0
5824,0.639999
5830,0.37104
5832,0.510416
5833,0.630295
5837,0.777777
5838,0.875
5839,1.0
5851,0.09625
5856,0.68889
5857,0.714285
5858,0.5
5864,0.364708
5871,0.105412
5874,0.387003
5878,0.032541
5879,0.034157
5880,1.0
5883,0.294117
5885,1.0
5887,0.39432
342,1.0
989,1.0
1282,0.544531
1338,0.3125
1456,0.75
1746,0.327472
2057,1.0
2302,0.462233
2606,0.75
2698,0.694444
2798,0.375
2938,0.380719
3929,0.042533
4047,0.424425
4319,0.722222
4399,0.981218
4419,0.622853
4461,0.5
4495,0.722222
4710,0.554824
4721,0.127893
4730,0.499858
4802,0.714477
4836,0.374979
4861,1.0
4954,0.738475
4993,0.312951
5005,0.625
5056,0.657559
5087,0.642833
5144,0.301623
5162,0.258196
5193,0.5625
5223,0.738475
5245,1.0
5293,0.75
5311,0.5
5324,0.625
5342,0.72
5363,0.722222
5380,0.578221
5401,0.333333
5448,0.651515
5488,0.513392
5497,0.745447
5513,0.55982
5530,0.375
5535,0.185897
5582,0.147874
5616,0.589517
5621,0.108013
5638,0.542857
5641,0.445043
5645,0.439155
5703,0.362631
5726,0.50022
5784,0.628773
5785,0.368273
5814,0.203234
5817,0.408581
5831,0.510416
5843,0.458333
5860,0.588086
5876,0.777777
5882,0.60195
5888,0.429644
5890,0.101835
5907,1.0
5912,0.714285
5914,0.034157
5916,0.523491
5917,0.9375
5931,0.965973
5933,1.0
5945,0.091836
5949,0.5
5957,0.535714
5958,0.6687
5964,0.294117
5965,0.792876
5967,0.68889
5968,0.059158
