id,resemblance
7,1.0
56,0.147768
63,0.453918
64,0.017807
65,0.285357
66,0.08386
69,0.651448
70,0.493936
71,0.001306
72,0.582159
73,0.485692
74,0.0
76,0.390167
77,0.395426
78,0.120773
107,0.0
172,1.0
190,0.0
191,0.625
712,0.510817
719,0.205798
778,1.0
786,0.565432
1139,0.460985
1237,0.077462
1408,0.838406
1586,0.019453
1587,0.532494
1834,0.45789
